…
### Using data

The `heartdisease` data provides medical information for 303 patients
that were tested for heart disease. The full data were split into two
subsets: A `heart.train` dataset for fitting decision trees, and
`heart.test` dataset for a testing the resulting trees. Here are the
first rows and columns of both subsets of the `heartdisease` data:

-   `heart.train` (the training / fitting dataset) contains the data
    from 150 patients:

<!-- -->

    heart.train
    #> # A tibble: 150 × 14
    #>    diagnosis   age   sex cp    trestbps  chol   fbs restecg     thalach exang
    #>    <lgl>     <dbl> <dbl> <chr>    <dbl> <dbl> <dbl> <chr>         <dbl> <dbl>
    #>  1 FALSE        44     0 np         108   141     0 normal          175     0
    #>  2 FALSE        51     0 np         140   308     0 hypertrophy     142     0
    #>  3 FALSE        52     1 np         138   223     0 normal          169     0
    #>  4 TRUE         48     1 aa         110   229     0 normal          168     0
    #>  5 FALSE        59     1 aa         140   221     0 normal          164     1
    #>  6 FALSE        58     1 np         105   240     0 hypertrophy     154     1
    #>  7 FALSE        41     0 aa         126   306     0 normal          163     0
    #>  8 TRUE         39     1 a          118   219     0 normal          140     0
    #>  9 TRUE         77     1 a          125   304     0 hypertrophy     162     1
    #> 10 FALSE        41     0 aa         105   198     0 normal          168     0
    #> # … with 140 more rows, and 4 more variables: oldpeak <dbl>, slope <chr>,
    #> #   ca <dbl>, thal <chr>

-   `heart.test` (the testing / prediction dataset) contains data from a
    new set of 153 patients:

<!-- -->

    heart.test
    #> # A tibble: 153 × 14
    #>    diagnosis   age   sex cp    trestbps  chol   fbs restecg     thalach exang
    #>    <lgl>     <dbl> <dbl> <chr>    <dbl> <dbl> <dbl> <chr>         <dbl> <dbl>
    #>  1 FALSE        51     0 np         120   295     0 hypertrophy     157     0
    #>  2 TRUE         45     1 ta         110   264     0 normal          132     0
    #>  3 TRUE         53     1 a          123   282     0 normal           95     1
    #>  4 TRUE         45     1 a          142   309     0 hypertrophy     147     1
    #>  5 FALSE        66     1 a          120   302     0 hypertrophy     151     0
    #>  6 TRUE         48     1 a          130   256     1 hypertrophy     150     1
    #>  7 TRUE         55     1 a          140   217     0 normal          111     1
    #>  8 FALSE        56     1 aa         130   221     0 hypertrophy     163     0
    #>  9 TRUE         42     1 a          136   315     0 normal          125     1
    #> 10 FALSE        45     1 a          115   260     0 hypertrophy     185     0
    #> # … with 143 more rows, and 4 more variables: oldpeak <dbl>, slope <chr>,
    #> #   ca <dbl>, thal <chr>
…
