Main function to create and apply fast-and-frugal trees (FFTs) — FFTrees • FFTrees
…
#> [181]  TRUE  TRUE FALSE  TRUE FALSE FALSE  TRUE  TRUE  TRUE  TRUE FALSE  TRUE
#> [193]  TRUE  TRUE FALSE  TRUE FALSE FALSE FALSE FALSE FALSE FALSE  TRUE  TRUE
#> [205]  TRUE  TRUE  TRUE  TRUE FALSE FALSE FALSE  TRUE FALSE  TRUE  TRUE  TRUE
#> [217] FALSE FALSE  TRUE FALSE FALSE FALSE FALSE  TRUE  TRUE FALSE FALSE FALSE
#> [229]  TRUE  TRUE FALSE FALSE FALSE FALSE FALSE  TRUE  TRUE  TRUE FALSE FALSE
#> [241] FALSE FALSE FALSE FALSE FALSE FALSE  TRUE  TRUE  TRUE FALSE  TRUE  TRUE
#> [253]  TRUE FALSE FALSE FALSE  TRUE FALSE FALSE  TRUE FALSE FALSE FALSE FALSE
#> [265]  TRUE  TRUE FALSE  TRUE  TRUE FALSE  TRUE  TRUE  TRUE FALSE FALSE  TRUE
#> [277] FALSE FALSE FALSE FALSE  TRUE FALSE  TRUE FALSE  TRUE  TRUE  TRUE  TRUE
#> [289]  TRUE FALSE  TRUE FALSE  TRUE  TRUE FALSE FALSE  TRUE  TRUE  TRUE  TRUE
#> [301]  TRUE FALSE FALSE
predict(heart.fft, newdata = heartdisease, type = "prob")
#> ✔ Applied 7 FFTs to 'test' data.
#> ✔ Generated predictions for tree 1.
#> # A tibble: 303 × 2
#>    prob_0 prob_1
#>     <dbl>  <dbl>
#>  1  0.262  0.738
#>  2  0.273  0.727
#>  3  0.262  0.738
#>  4  0.862  0.138
#>  5  0.862  0.138
#>  6  0.862  0.138
#>  7  0.273  0.727
#>  8  0.706  0.294
#>  9  0.262  0.738
#> 10  0.262  0.738
#> # ℹ 293 more rows
…
